{
  "scan": {
    "analysis": {
      "0": {
        "algorithm": "ScurveFitter",
	"config":{ 
	    "additionalPlot":{
		"PlotNum": 10,
		"threshold_min": -1,
		"threshold_max": 1,
		"noise_min": 0,
		"noise_max": 1000
	    },
	    "specifyPlot":{
		"column" : 270,
		"row"    : 10
	    }
	}
      },
      "1": {
        "algorithm": "OccupancyAnalysis"
      },
      "n_count": 1
    },
    "histogrammer": {
      "0": {
        "algorithm": "OccupancyMap",
        "config": {}
      },
      "1": {
        "algorithm": "TotMap",
        "config": {}
      },
      "2": {
        "algorithm": "Tot2Map",
        "config": {}
      },
      "3": {
        "algorithm": "L1Dist",
        "config": {}
      },
      "4": {
        "algorithm": "HitsPerEvent",
        "config": {}
      },
      "n_count": 5
    },
    "loops": [
      {
        "config": {
          "max": 64,
          "min": 0,
          "step": 1
        },
        "loopAction": "Rd53aMaskLoop"
      },
      {
        "config": {
          "max": 200,
          "min": 0,
          "step": 5,
          "parameter":"InjVcalDiff"
        },
        "loopAction": "Rd53aParameterLoop"
      },
      {
        "config": {
          "max": 50,
          "min": 33,
          "step": 1,
          "nSteps": 2,
          "delayArray": [0]
        },
        "loopAction": "Rd53aCoreColLoop"
      },
      {
        "config": {
          "count": 50,
          "delay": 48,
          "extTrigger": false,
          "frequency": 20000,
          "noInject": false,
          "time": 0
        },
        "loopAction": "Rd53aTriggerLoop"
      },
      {
        "loopAction": "StdDataLoop"
      }
    ],
    "name": "ThresholdScan",
    "prescan": {
        "InjEnDig": 0,
        "LatencyConfig": 48,
        "GlobalPulseRt": 0,
        "InjVcalMed": 1000,
        "InjVcalHigh": 1000,
        "SyncVth": 500,
        "LinVth": 500,
        "EnCoreColLin1": 0,
        "EnCoreColLin2": 0,
        "EnCoreColSync": 0
    }
  }
}
